<svg xmlns="http://www.w3.org/2000/svg" width="18" height="18" viewBox="0 0 18 18">
  <g id="Contents" transform="translate(-61 -3)">
    <line id="Line_125" data-name="Line 125" x2="4" transform="translate(70 10)" fill="none" stroke="#3366CC" stroke-linecap="round" stroke-linejoin="round" stroke-width="2"/>
    <line id="Line_126" data-name="Line 126" x2="4" transform="translate(68 4)" fill="none" stroke="#3366CC" stroke-linecap="round" stroke-linejoin="round" stroke-width="2"/>
    <line id="Line_127" data-name="Line 127" x2="1" transform="translate(66 10)" fill="none" stroke="#3366CC" stroke-linecap="round" stroke-linejoin="round" stroke-width="2"/>
    <line id="Line_128" data-name="Line 128" x2="4" transform="translate(70 14)" fill="none" stroke="#3366CC" stroke-linecap="round" stroke-linejoin="round" stroke-width="2"/>
    <line id="Line_129" data-name="Line 129" x2="1" transform="translate(66 14)" fill="none" stroke="#3366CC" stroke-linecap="round" stroke-linejoin="round" stroke-width="2"/>
    <path id="Rectangle_45" data-name="Rectangle 45" d="M.5,0h15a.5.5,0,0,1,.5.5V13a2,2,0,0,1-2,2H2a2,2,0,0,1-2-2V.5A.5.5,0,0,1,.5,0Z" transform="translate(62 5)" fill="none" stroke="#8ccfb5" stroke-linecap="round" stroke-linejoin="round" stroke-width="2"/>
  </g>
</svg>
